DDS Budweiser Analysis
…
dim(breweries) # 558 4

## [1] 558   4

breweries_by_state <- 
  breweries %>% 
  group_by(State) %>% 
  summarize(count=n())

breweries_by_state %>% arrange(desc(count)) # Descending

## # A tibble: 51 x 2
##    State count
##    <chr> <int>
##  1 " CO"    47
##  2 " CA"    39
##  3 " MI"    32
##  4 " OR"    29
##  5 " TX"    28
##  6 " PA"    25
##  7 " MA"    23
##  8 " WA"    23
##  9 " IN"    22
## 10 " WI"    20
## # i 41 more rows

breweries_by_state %>% arrange(count) # Ascending

## # A tibble: 51 x 2
##    State count
##    <chr> <int>
##  1 " DC"     1
##  2 " ND"     1
##  3 " SD"     1
##  4 " WV"     1
##  5 " AR"     2
##  6 " DE"     2
##  7 " MS"     2
##  8 " NV"     2
##  9 " AL"     3
## 10 " KS"     3
## # i 41 more rows
…
# Dataframe With IPA vs Ale Distinction 
IPAs_and_Ales <- rbind(IPA_Beers,Ale_Beers)

# The above approach was pretty manual.
# Is it possible to pass in a list of styles to ChatGPT and have it give you list of IPAs, Ales, neither, sometimes an Ale and sometimes neither.
all_styles <- beers_and_breweries %>%
  group_by(Style) %>%
  summarize(Count=n())
all_styles

## # A tibble: 93 x 2
##    Style                      Count
##    <chr>                      <int>
##  1 Abbey Single Ale               2
##  2 Altbier                       13
##  3 American Adjunct Lager        18
##  4 American Amber / Red Ale     133
##  5 American Amber / Red Lager    29
##  6 American Barleywine            3
##  7 American Black Ale            36
##  8 American Blonde Ale          108
##  9 American Brown Ale            70
## 10 American Dark Wheat Ale        7
## # i 83 more rows
…
